{
  "cmp-buffer": { "branch": "main", "commit": "3022dbc9166796b644a841a02de8dd1cc1d311fa" },
  "cmp-cmdline": { "branch": "main", "commit": "d250c63aa13ead745e3a40f61fdd3470efde3923" },
  "cmp-nvim-lsp": { "branch": "main", "commit": "99290b3ec1322070bcfb9e846450a46f6efa50f0" },
  "cmp-path": { "branch": "main", "commit": "91ff86cd9c29299a64f968ebb45846c485725f23" },
  "cmp-vsnip": { "branch": "main", "commit": "989a8a73c44e926199bfd05fa7a516d51f2d2752" },
  "lazy.nvim": { "branch": "main", "commit": "6c3bda4aca61a13a9c63f1c1d1b16b9d3be90d7a" },
  "nvim-cmp": { "branch": "main", "commit": "c27370703e798666486e3064b64d59eaf4bdc6d5" },
  "nvim-lspconfig": { "branch": "master", "commit": "8e8fd432f05b126a9dd1635e8022c7e7d1a04e60" },
  "nvim-osc52": { "branch": "main", "commit": "04cfaba1865ae5c53b6f887c3ca7304973824fb2" },
  "ron.vim": { "branch": "master", "commit": "f749e543975a82e8dd9a6e7df9600a1c098ae800" },
  "rust.vim": { "branch": "master", "commit": "889b9a7515db477f4cb6808bef1769e53493c578" },
  "rustaceanvim": { "branch": "master", "commit": "2b0f0b7e03751cf8ed123322f9b02d8f73fa9df7" },
  "vim-vsnip": { "branch": "master", "commit": "02a8e79295c9733434aab4e0e2b8c4b7cea9f3a9" }
}
